…
  "03/16/2020", 17.3, "Mask",
  "03/16/2020", 14, "No Mask",
  "03/17/2020", 17, "Mask",
  "03/17/2020", 16, "No Mask",
  "03/18/2020", 16.7, "Mask",
  "03/18/2020", 16.7, "No Mask",
  "03/19/2020", 16, "Mask",
  "03/19/2020", 17, "No Mask",
  "03/20/2020", 15.5, "Mask",
  "03/20/2020", 20, "No Mask"
)
covid_data
```

    ## # A tibble: 40 × 3
    ##    date      covid_cases counties
    ##    <chr>           <dbl> <chr>   
    ##  1 03/1/2020        23   Mask    
    ##  2 03/1/2020        10.2 No Mask 
    ##  3 03/2/2020        19.6 Mask    
    ##  4 03/2/2020        10   No Mask 
    ##  5 03/3/2020        19   Mask    
    ##  6 03/3/2020        10   No Mask 
    ##  7 03/4/2020        19.4 Mask    
    ##  8 03/4/2020         9.8 No Mask 
    ##  9 03/5/2020        18.9 Mask    
    ## 10 03/5/2020        10.2 No Mask 
    ## # ℹ 30 more rows
…
